module gitlab.com/beeper/matrix-vacation-responder

go 1.16

require (
	github.com/mattn/go-sqlite3 v1.14.8
	github.com/sethvargo/go-retry v0.1.0
	github.com/sirupsen/logrus v1.8.1
	gopkg.in/yaml.v2 v2.4.0
	maunium.net/go/mautrix v0.9.29
)
